symbol,name,wkn,isin,sector,look_type,quote_currency,history
ariva::100002305.1,Pennon Group Plc,A0J371,GB00B18V8630,None,Stock,EUR,0
ariva::100022354.6,Manz Automation AG Inhaber-Aktien,A0JQ5U,DE000A0JQ5U3,ariva::39535.12,Stock,EUR,0
ariva::100101525.1,Lyxor ETF MSCI India,LYX0BA,FR0010361683,NONE,ETF,EUR,0
ariva::100185490.12,iShares Listed Private Equity UCITS ETF,A0MM0N,IE00B1TXHL60,None,ETF,EUR,0
ariva::100230650.127,Dow Jones EURO STOXX Retail,A0AE1U,CH0019113023,NONE,Index,EUR,0
ariva::100288125.71,Dow Jones Transportation Average Index,969421,XC0009694214,NONE,Sector,EUR,0
ariva::3491.12,MDAX Performance Index,846741,DE0008467416,NONE,Index,EUR,0
ariva::8686.8,DWS Aktien Strategie Deutschland,976986,DE0009769869,None,Regional Fund,EUR,0
ariva::108162909.17,Unirak Nachhaltig A Fonds,A1JQ10,LU0718558488,None,Funds of funds,EUR,0
ariva::100291208.71,Dow Jones Equity All Reit Total Return Index,660643,XC0006606435,None,Sector,EUR,0
swisscanto::32033,Mi-Fonds (CH) 45 Sustainable V,10270610,CH0102706105,None,Funds of funds,CHF,0
ariva::10282.16,Egana Goldpfeil,887923,KYG2943E1329,ariva::100098621.12,Stock,EUR,0
ariva::102560464.39,Dt. Bank Call auf MDAX,DB9RR1,DE000DB9RR16,None,Warrant,EUR,1
ariva::102560520.39,Dt. Bank Put auf MDAX,DB9RW9,DE000DB9RW92,None,Warrant,EUR,1
